<svg
                xmlns="http://www.w3.org/2000/svg"
                width="50.392"
                height="60"
                viewBox="0 0 50.392 60"
              >
                <path
                  id="Path_18"
                  data-name="Path 18"
                  d="M91.386,38.673A5.869,5.869,0,0,0,86.7,32.931V26.6a1.758,1.758,0,0,0-2.375-1.646l-3.355,1.258a20.494,20.494,0,0,0-7.816-5.075,11.719,11.719,0,1,0-13.925,0,20.5,20.5,0,0,0-7.816,5.075l-3.355-1.258A1.758,1.758,0,0,0,45.682,26.6v6.329a5.86,5.86,0,0,0,0,11.483v6.8a1.758,1.758,0,0,0,1.141,1.646l18.75,7.031a1.778,1.778,0,0,0,1.234,0l18.75-7.031A1.758,1.758,0,0,0,86.7,51.212v-6.8A5.869,5.869,0,0,0,91.386,38.673Zm-33.4-26.954a8.2,8.2,0,1,1,8.2,8.2A8.213,8.213,0,0,1,57.987,11.719Zm8.2,11.719a16.966,16.966,0,0,1,11.121,4.148L66.19,31.756l-11.121-4.17A16.966,16.966,0,0,1,66.19,23.438ZM44.51,38.673a2.346,2.346,0,0,1,2.344-2.344h1.172v4.688H46.853A2.346,2.346,0,0,1,44.51,38.673Zm4.688,5.8A2.935,2.935,0,0,0,51.541,41.6v-5.86A2.935,2.935,0,0,0,49.2,32.872V29.139l15.235,5.713V55.707L49.2,49.994Zm18.75,11.234V34.852l15.235-5.713v3.733a2.935,2.935,0,0,0-2.344,2.871V41.6a2.935,2.935,0,0,0,2.344,2.871v5.521Zm17.579-14.69H84.354V36.329h1.172a2.344,2.344,0,0,1,0,4.688Z"
                  transform="translate(-40.994)"
                />
              </svg>